<?xml version="1.0" encoding="utf-8"?>
<!-- Generator: Adobe Illustrator 23.0.3, SVG Export Plug-In . SVG Version: 6.00 Build 0)  -->
<svg version="1.1" id="Layer_1" xmlns="http://www.w3.org/2000/svg" xmlns:xlink="http://www.w3.org/1999/xlink" x="0px" y="0px"
	 viewBox="0 0 54.4 54.4" style="enable-background:new 0 0 54.4 54.4;" xml:space="preserve">
<style type="text/css">
	.st1{fill:#FFFFFF;}
</style>
<title>si_logo-primary-b&amp;amp;w</title>
<g>
	<g>
		<path class="st1" d="M43.6,33c-1-1.8-2.8-3-4.9-3.1l0,0l11.7-2.5L38.7,25l0,0c1.6-1.4,3.7-2.1,5.8-2.2c2.6,0,4.8-3.2,3.4-5.7
			c0,0-0.4,3.9-5.2,2.6c-2-0.6-4.1-0.1-5.6,1.3l0,0l6.6-10.1l-10,6.6l0,0c0.2-2.1,1.1-4.2,2.5-5.8c1.8-1.9,1.2-5.7-1.6-6.4
			c0,0,2.4,3-1.9,5.6c-1.8,1-3,2.9-3.1,4.9l0,0L27.2,4l-2.4,11.8l0,0c-1.4-1.7-2.1-3.7-2.2-5.9c0-2.6-3.2-4.9-5.6-3.4
			c0,0,3.8,0.4,2.5,5.3c-0.6,2-0.1,4.1,1.3,5.7l0,0l-10-6.6l5.4,8.3l1.2,1.9l0,0c-2.1-0.2-4.1-1.1-5.7-2.6C9.8,16.5,6,17.2,5.3,20
			c0,0,3-2.4,5.5,1.9c1,1.8,2.8,3,4.9,3.1l0,0L3.9,27.4l11.7,2.5l0,0C14,31.3,12,32,9.9,32.1c-2.6,0-4.8,3.2-3.4,5.7
			c0,0,0.4-3.8,5.3-2.6c2,0.6,4.1,0.1,5.6-1.3l0,0L10.8,44l10-6.6c-0.2,2.1-1.1,4.1-2.5,5.7c-1.8,1.9-1.2,5.7,1.6,6.4
			c0,0-2.4-3,1.9-5.5c1.8-1,3-2.9,3-5l0,0l2.5,11.9l2.4-11.8l0,0c1.4,1.7,2.1,3.7,2.2,5.9c0,2.6,3.2,4.9,5.6,3.4
			c0,0-3.8-0.4-2.6-5.3c0.6-2,0.1-4.2-1.3-5.7l0,0l10,6.6l-3.4-5.3l-3.1-4.8c2.1,0.2,4.1,1.1,5.7,2.6c1.8,1.8,5.7,1.2,6.4-1.6
			C49.2,34.9,46.2,37.3,43.6,33"/>
	</g>
</g>
</svg>
